module gitlab.com/m4573rh4ck3r/cloud-nuke-gen

go 1.16

require (
	github.com/kr/pretty v0.3.1 // indirect
	gopkg.in/check.v1 v1.0.0-20180628173108-788fd7840127 // indirect
	gopkg.in/yaml.v2 v2.4.0
	gopkg.in/yaml.v3 v3.0.1
)
